%YAML 1.1
%TAG !u! tag:unity3d.com,2011:
--- !u!114 &11400000
MonoBehaviour:
  m_ObjectHideFlags: 0
  m_CorrespondingSourceObject: {fileID: 0}
  m_PrefabInstance: {fileID: 0}
  m_PrefabAsset: {fileID: 0}
  m_GameObject: {fileID: 0}
  m_Enabled: 1
  m_EditorHideFlags: 0
  m_Script: {fileID: 11500000, guid: faa356f2dc963094b97cfb991d688376, type: 3}
  m_Name: System
  m_EditorClassIdentifier: 
  itemType: 1
  itemIndex: 5
  _closetSprite: {fileID: 21300000, guid: aa2aa973f6f5f7a49a62f248491d1607, type: 3}
  _cursorSprite: {fileID: 21300000, guid: aa2aa973f6f5f7a49a62f248491d1607, type: 3}
  _characterPrefab: {fileID: 8079538495960471975, guid: 34d5b8fcc961ddc44a757d79be2fdaa5, type: 3}
