%YAML 1.1
%TAG !u! tag:unity3d.com,2011:
--- !u!114 &11400000
MonoBehaviour:
  m_ObjectHideFlags: 0
  m_CorrespondingSourceObject: {fileID: 0}
  m_PrefabInstance: {fileID: 0}
  m_PrefabAsset: {fileID: 0}
  m_GameObject: {fileID: 0}
  m_Enabled: 1
  m_EditorHideFlags: 0
  m_Script: {fileID: 11500000, guid: faa356f2dc963094b97cfb991d688376, type: 3}
  m_Name: Skull4
  m_EditorClassIdentifier: 
  itemType: 0
  itemIndex: 4
  _closetSprite: {fileID: 21300000, guid: 73cf0e091303e7341974bcbd3bc3d2f2, type: 3}
  _cursorSprite: {fileID: 21300000, guid: 73cf0e091303e7341974bcbd3bc3d2f2, type: 3}
  _characterPrefab: {fileID: 1562114480902156043, guid: 5f685e1ac41c05947ad21541bd98f844, type: 3}
